analyses
…
data

# A tibble: 180 × 7
   cultivar herbicide density rep   dat   injury yield
   <fct>    <fct>     <fct>   <fct> <fct>  <dbl> <dbl>
 1 59i58    Cardeal   normal  1     7         12 3378.
 2 59i58    Cardeal   normal  2     7          0 4615.
 3 59i58    Cardeal   normal  3     7          3 4885.
 4 59i58    Pacto     normal  1     7          0 3578.
 5 59i58    Pacto     normal  2     7          3 4467.
 6 59i58    Pacto     normal  3     7          0 4944.
 7 59i58    Glifotal  normal  1     7          0 3678.
 8 59i58    Glifotal  normal  2     7          8 5122.
 9 59i58    Glifotal  normal  3     7          2 4285.
10 59i58    CardPacto normal  1     7          8 3196.
# … with 170 more rows
…
